{
  "web": {
    "client_id": "449404905788-jl6mvpgrhft48ti2iep0jgsrken5lp1l.apps.googleusercontent.com",
    "project_id": "veemobile-1",
    "auth_uri": "https://accounts.google.com/o/oauth2/auth",
    "token_uri": "https://accounts.google.com/o/oauth2/token",
    "auth_provider_x509_cert_url": "https://www.googleapis.com/oauth2/v1/certs",
    "client_secret": "W5usinQh8nVd9AZWIlyBmav8",
    "redirect_uris": [
      "http://localhost:9000/oauth"
    ],
    "javascript_origins": [
      "http://localhost:9000"
    ]
  }
}