{
    "prepare_queue": {
        "installed": [],
        "uninstalled": []
    },
    "config_munge": {
        "files": {
            "config.xml": {
                "parents": {
                    "/*": [
                        {
                            "xml": "<feature name=\"Calendar\"><param name=\"ios-package\" value=\"Calendar\" /></feature>",
                            "count": 1
                        },
                        {
                            "xml": "<feature name=\"Console\"><param name=\"ios-package\" value=\"CDVLogger\" /></feature>",
                            "count": 1
                        },
                        {
                            "xml": "<feature name=\"Device\"><param name=\"ios-package\" value=\"CDVDevice\" /></feature>",
                            "count": 1
                        },
                        {
                            "xml": "<feature name=\"SplashScreen\"><param name=\"ios-package\" value=\"CDVSplashScreen\" /><param name=\"onload\" value=\"true\" /></feature>",
                            "count": 1
                        },
                        {
                            "xml": "<feature name=\"StatusBar\"><param name=\"ios-package\" value=\"CDVStatusBar\" /><param name=\"onload\" value=\"true\" /></feature>",
                            "count": 1
                        },
                        {
                            "xml": "<preference name=\"StatusBarOverlaysWebView\" value=\"true\" />",
                            "count": 1
                        },
                        {
                            "xml": "<preference name=\"StatusBarStyle\" value=\"lightcontent\" />",
                            "count": 1
                        },
                        {
                            "xml": "<feature name=\"Keyboard\"><param name=\"ios-package\" onload=\"true\" value=\"IonicKeyboard\" /></feature>",
                            "count": 1
                        },
                        {
                            "xml": "<feature name=\"PushNotification\"><param name=\"ios-package\" value=\"PushPlugin\" /></feature>",
                            "count": 1
                        },
                        {
                            "xml": "<feature name=\"HealthKit\"><param name=\"ios-package\" value=\"HealthKit\" /></feature>",
                            "count": 1
                        },
                        {
                            "xml": "<feature name=\"NetworkStatus\"><param name=\"ios-package\" value=\"CDVConnection\" /></feature>",
                            "count": 1
                        }
                    ]
                }
            },
            "*-Info.plist": {
                "parents": {
                    "CFBundleLocalizations": [
                        {
                            "xml": "<array><string>en</string><string>de</string><string>nl</string><string>fr</string><string>it</string></array>",
                            "count": 1
                        }
                    ],
                    "NSCalendarsUsageDescription": [
                        {
                            "xml": "<string />",
                            "count": 1
                        }
                    ],
                    "UIRequiredDeviceCapabilities": [
                        {
                            "xml": "<array><string>healthkit</string></array>",
                            "count": 1
                        }
                    ],
                    "UIBackgroundModes": [
                        {
                            "xml": "<array><string>remote-notification</string></array>",
                            "count": 1
                        }
                    ],
                    "GCM_SENDER_ID": [
                        {
                            "xml": "<string>449404905788</string>",
                            "count": 1
                        }
                    ],
                    "IS_GCM_ENABLED": [
                        {
                            "xml": "<true />",
                            "count": 1
                        }
                    ],
                    "NSHealthShareUsageDescription": [
                        {
                            "xml": "<string />",
                            "count": 2
                        }
                    ],
                    "NSHealthUpdateUsageDescription": [
                        {
                            "xml": "<string />",
                            "count": 2
                        }
                    ]
                }
            }
        }
    },
    "installed_plugins": {
        "cordova-plugin-calendar": {
            "PACKAGE_NAME": "io.veedata.veemobile"
        },
        "cordova-plugin-console": {
            "PACKAGE_NAME": "io.veedata.veemobile"
        },
        "cordova-plugin-device": {
            "PACKAGE_NAME": "io.veedata.veemobile"
        },
        "cordova-plugin-splashscreen": {
            "PACKAGE_NAME": "io.veedata.veemobile"
        },
        "cordova-plugin-statusbar": {
            "PACKAGE_NAME": "io.veedata.veemobile"
        },
        "cordova-plugin-whitelist": {
            "PACKAGE_NAME": "io.veedata.veemobile"
        },
        "ionic-plugin-keyboard": {
            "PACKAGE_NAME": "io.veedata.veemobile"
        },
        "phonegap-plugin-push": {
            "SENDER_ID": "449404905788",
            "PACKAGE_NAME": "io.veedata.veemobile"
        },
        "cordova-plugin-compat": {
            "PACKAGE_NAME": "io.veedata.veemobile"
        },
        "cordova-plugin-health": {
            "PACKAGE_NAME": "io.veedata.veemobile"
        },
        "cordova-plugin-network-information": {
            "PACKAGE_NAME": "io.veedata.veemobile"
        }
    },
    "dependent_plugins": {},
    "modules": [
        {
            "id": "cordova-plugin-calendar.Calendar",
            "file": "plugins/cordova-plugin-calendar/www/Calendar.js",
            "pluginId": "cordova-plugin-calendar",
            "clobbers": [
                "Calendar"
            ]
        },
        {
            "id": "cordova-plugin-calendar.tests",
            "file": "plugins/cordova-plugin-calendar/test/tests.js",
            "pluginId": "cordova-plugin-calendar"
        },
        {
            "id": "cordova-plugin-console.console",
            "file": "plugins/cordova-plugin-console/www/console-via-logger.js",
            "pluginId": "cordova-plugin-console",
            "clobbers": [
                "console"
            ]
        },
        {
            "id": "cordova-plugin-console.logger",
            "file": "plugins/cordova-plugin-console/www/logger.js",
            "pluginId": "cordova-plugin-console",
            "clobbers": [
                "cordova.logger"
            ]
        },
        {
            "id": "cordova-plugin-device.device",
            "file": "plugins/cordova-plugin-device/www/device.js",
            "pluginId": "cordova-plugin-device",
            "clobbers": [
                "device"
            ]
        },
        {
            "id": "cordova-plugin-splashscreen.SplashScreen",
            "file": "plugins/cordova-plugin-splashscreen/www/splashscreen.js",
            "pluginId": "cordova-plugin-splashscreen",
            "clobbers": [
                "navigator.splashscreen"
            ]
        },
        {
            "id": "cordova-plugin-statusbar.statusbar",
            "file": "plugins/cordova-plugin-statusbar/www/statusbar.js",
            "pluginId": "cordova-plugin-statusbar",
            "clobbers": [
                "window.StatusBar"
            ]
        },
        {
            "id": "ionic-plugin-keyboard.keyboard",
            "file": "plugins/ionic-plugin-keyboard/www/ios/keyboard.js",
            "pluginId": "ionic-plugin-keyboard",
            "clobbers": [
                "cordova.plugins.Keyboard"
            ],
            "runs": true
        },
        {
            "id": "phonegap-plugin-push.PushNotification",
            "file": "plugins/phonegap-plugin-push/www/push.js",
            "pluginId": "phonegap-plugin-push",
            "clobbers": [
                "PushNotification"
            ]
        },
        {
            "id": "cordova-plugin-health.HealthKit",
            "file": "plugins/cordova-plugin-health/www/ios/HealthKit.js",
            "pluginId": "cordova-plugin-health",
            "clobbers": [
                "window.plugins.healthkit"
            ]
        },
        {
            "id": "cordova-plugin-health.health",
            "file": "plugins/cordova-plugin-health/www/ios/health.js",
            "pluginId": "cordova-plugin-health",
            "clobbers": [
                "navigator.health"
            ]
        },
        {
            "id": "cordova-plugin-network-information.network",
            "file": "plugins/cordova-plugin-network-information/www/network.js",
            "pluginId": "cordova-plugin-network-information",
            "clobbers": [
                "navigator.connection",
                "navigator.network.connection"
            ]
        },
        {
            "id": "cordova-plugin-network-information.Connection",
            "file": "plugins/cordova-plugin-network-information/www/Connection.js",
            "pluginId": "cordova-plugin-network-information",
            "clobbers": [
                "Connection"
            ]
        }
    ],
    "plugin_metadata": {
        "cordova-plugin-calendar": "4.5.3",
        "cordova-plugin-console": "1.0.4",
        "cordova-plugin-device": "1.1.3",
        "cordova-plugin-splashscreen": "4.0.0",
        "cordova-plugin-statusbar": "2.2.0",
        "cordova-plugin-whitelist": "1.3.0",
        "ionic-plugin-keyboard": "2.2.1",
        "phonegap-plugin-push": "1.8.2",
        "cordova-plugin-compat": "1.0.0",
        "cordova-plugin-health": "0.7.0",
        "cordova-plugin-network-information": "1.3.0"
    }
}